<svg width="1440" height="105" viewBox="0 0 1440 105" fill="none" xmlns="http://www.w3.org/2000/svg">
<rect width="1440" height="105" fill="url(#paint0_linear)"/>
<defs>
<linearGradient id="paint0_linear" x1="2160" y1="52.7278" x2="2144.9" y2="-155.267" gradientUnits="userSpaceOnUse">
<stop stop-color="#B1F1A2"/>
<stop offset="1" stop-color="#06CFD2"/>
</linearGradient>
</defs>
</svg>
