<svg width="134" height="44" viewBox="0 0 134 44" fill="none" xmlns="http://www.w3.org/2000/svg">
<path fill-rule="evenodd" clip-rule="evenodd" d="M53.9389 20.0302H53.5248C53.2488 20.0302 53.1798 19.9605 53.1108 19.821L49.7987 12.778H49.7297V19.821C49.7297 19.9605 49.6607 20.0302 49.5227 20.0302H48.6256C48.4876 20.0302 48.4186 19.9605 48.4186 19.821V10.4768C48.4186 10.3373 48.4876 10.2676 48.6256 10.2676H49.6607C49.9367 10.2676 50.0057 10.3373 50.0747 10.4768L53.7042 18.2172H53.7594L57.389 10.4768C57.458 10.3373 57.527 10.2676 57.803 10.2676H58.8381C58.9761 10.2676 59.0451 10.3373 59.0451 10.4768V19.821C59.0451 19.9605 58.9761 20.0302 58.8381 20.0302H57.941C57.803 20.0302 57.734 19.9605 57.734 19.821V12.778H57.665L54.3529 19.821C54.2839 19.9605 54.2149 20.0302 53.9389 20.0302ZM64.5776 16.2646H67.8897L66.2613 11.8017H66.2061L64.5776 16.2646ZM68.3727 17.5198H64.0946L63.2665 19.821C63.2113 19.9605 63.1285 20.0302 62.9215 20.0302H61.9555C61.8175 20.0302 61.7623 19.9605 61.8175 19.821L65.4056 10.4768C65.4746 10.3373 65.5436 10.2676 65.7506 10.2676H66.7167C66.9237 10.2676 66.9927 10.3373 67.0617 10.4768L70.6498 19.821C70.705 19.9605 70.6498 20.0302 70.5118 20.0302H69.5458C69.3388 20.0302 69.256 19.9605 69.2008 19.821L68.3727 17.5198ZM79.4255 16.5436L81.2196 19.821C81.2886 19.9605 81.2196 20.0302 81.0816 20.0302H80.1155C79.9085 20.0302 79.8395 19.9605 79.7705 19.821L78.1144 16.683H74.7333V19.821C74.7333 19.9605 74.6643 20.0302 74.5263 20.0302H73.6292C73.4912 20.0302 73.4222 19.9605 73.4222 19.821V10.4768C73.4222 10.3373 73.4912 10.2676 73.6292 10.2676H78.5285C80.1845 10.2676 81.0126 11.1044 81.0126 12.7082V14.2424C81.0126 16.3344 79.4255 16.5436 79.4255 16.5436ZM74.7333 15.4278H78.5285C79.2875 15.4278 79.7015 15.0094 79.7015 14.2424V12.7082C79.7015 11.9412 79.2875 11.5228 78.5285 11.5228H74.7333V15.4278ZM86.1311 15.5673V19.821C86.1311 19.9605 86.0621 20.0302 85.924 20.0302H85.027C84.889 20.0302 84.82 19.9605 84.82 19.821V10.4768C84.82 10.3373 84.889 10.2676 85.027 10.2676H85.924C86.0621 10.2676 86.1311 10.3373 86.1311 10.4768V14.3121H88.7532L90.8233 10.4768C90.8923 10.3373 90.9613 10.2676 91.1683 10.2676H92.1343C92.2723 10.2676 92.3413 10.3373 92.2723 10.4768L89.8572 14.87L92.5483 19.821C92.6173 19.9605 92.5483 20.0302 92.4103 20.0302H91.4443C91.2373 20.0302 91.1683 19.9605 91.0993 19.821L88.8222 15.5673H86.1311ZM96.9078 18.775H102.842C102.98 18.775 103.049 18.8448 103.049 18.9842V19.821C103.049 19.9605 102.98 20.0302 102.856 20.0302H95.8037C95.6657 20.0302 95.5967 19.9605 95.5967 19.821V10.4907C95.5967 10.3373 95.6657 10.2676 95.8037 10.2676H102.704C102.842 10.2676 102.911 10.3373 102.911 10.4768V11.3136C102.911 11.453 102.842 11.5228 102.718 11.5228H96.9078V14.4516H101.462C101.6 14.4516 101.669 14.5213 101.669 14.6608V15.4976C101.669 15.637 101.6 15.7068 101.476 15.7068H96.9078V18.775ZM109.52 11.5228V19.821C109.52 19.9605 109.451 20.0302 109.313 20.0302H108.416C108.278 20.0302 108.209 19.9605 108.209 19.821V11.5228H105.173C105.035 11.5228 104.966 11.453 104.966 11.3136V10.4768C104.966 10.3373 105.035 10.2676 105.173 10.2676H112.556C112.694 10.2676 112.763 10.3373 112.763 10.4768V11.3136C112.763 11.453 112.694 11.5228 112.556 11.5228H109.52ZM116.819 18.775H122.753C122.891 18.775 122.96 18.8448 122.96 18.9842V19.821C122.96 19.9605 122.891 20.0302 122.767 20.0302H115.715C115.577 20.0302 115.508 19.9605 115.508 19.821V10.4907C115.508 10.3373 115.577 10.2676 115.715 10.2676H122.615C122.753 10.2676 122.822 10.3373 122.822 10.4768V11.3136C122.822 11.453 122.753 11.5228 122.629 11.5228H116.819V14.4516H121.373C121.511 14.4516 121.58 14.5213 121.58 14.6608V15.4976C121.58 15.637 121.511 15.7068 121.387 15.7068H116.819V18.775ZM132.122 16.5436L133.916 19.821C133.985 19.9605 133.916 20.0302 133.778 20.0302H132.812C132.605 20.0302 132.536 19.9605 132.467 19.821L130.811 16.683H127.43V19.821C127.43 19.9605 127.361 20.0302 127.223 20.0302H126.326C126.188 20.0302 126.119 19.9605 126.119 19.821V10.4768C126.119 10.3373 126.188 10.2676 126.326 10.2676H131.225C132.881 10.2676 133.709 11.1044 133.709 12.7082V14.2424C133.709 16.3344 132.122 16.5436 132.122 16.5436ZM127.43 15.4278H131.225C131.984 15.4278 132.398 15.0094 132.398 14.2424V12.7082C132.398 11.9412 131.984 11.5228 131.225 11.5228H127.43V15.4278Z" fill="black"/>
<path fill-rule="evenodd" clip-rule="evenodd" d="M58.813 42.4172H58.0334C57.5137 42.4172 57.3837 42.2859 57.2538 42.0233L51.0172 28.7615H50.8873V42.0233C50.8873 42.2859 50.7573 42.4172 50.4975 42.4172H48.8084C48.5485 42.4172 48.4186 42.2859 48.4186 42.0233V24.4285C48.4186 24.1659 48.5485 24.0346 48.8084 24.0346H50.7573C51.2771 24.0346 51.407 24.1659 51.5369 24.4285L58.3712 39.0033H58.4751L65.3094 24.4285C65.4393 24.1659 65.5693 24.0346 66.089 24.0346H68.0379C68.2978 24.0346 68.4277 24.1659 68.4277 24.4285V42.0233C68.4277 42.2859 68.2978 42.4172 68.0379 42.4172H66.3488C66.089 42.4172 65.9591 42.2859 65.9591 42.0233V28.7615H65.8291L59.5925 42.0233C59.4626 42.2859 59.3327 42.4172 58.813 42.4172ZM76.7209 35.3268H82.9575L79.8912 26.9233H79.7872L76.7209 35.3268ZM83.867 37.6902H75.8114L74.2523 42.0233C74.1483 42.2859 73.9924 42.4172 73.6026 42.4172H71.7836C71.5237 42.4172 71.4198 42.2859 71.5237 42.0233L78.2801 24.4285C78.41 24.1659 78.5399 24.0346 78.9297 24.0346H80.7487C81.1385 24.0346 81.2684 24.1659 81.3984 24.4285L88.1547 42.0233C88.2586 42.2859 88.1547 42.4172 87.8948 42.4172H86.0758C85.686 42.4172 85.5301 42.2859 85.4262 42.0233L83.867 37.6902ZM90.4711 38.0841V28.3676C90.4711 25.3476 92.0303 23.772 95.1486 23.772H101.125C104.244 23.772 105.803 25.3476 105.803 28.3676V29.4181C105.803 29.6807 105.673 29.812 105.413 29.812H103.724C103.464 29.812 103.334 29.6807 103.334 29.4181V28.3676C103.334 26.9233 102.555 26.1355 101.125 26.1355H95.1486C93.7194 26.1355 92.9398 26.9233 92.9398 28.3676V38.0841C92.9398 39.5285 93.7194 40.3163 95.1486 40.3163H101.125C102.555 40.3163 103.334 39.5285 103.334 38.0841V35.0641H99.4363C99.1764 35.0641 99.0465 34.9328 99.0465 34.6702V33.0946C99.0465 32.832 99.1764 32.7007 99.4363 32.7007H105.413C105.699 32.7007 105.803 32.832 105.803 33.1208V38.0841C105.803 41.1041 104.244 42.6798 101.125 42.6798H95.1486C92.0303 42.6798 90.4711 41.1041 90.4711 38.0841ZM110.926 42.0233V24.4285C110.926 24.1659 111.056 24.0346 111.316 24.0346H113.005C113.264 24.0346 113.394 24.1659 113.394 24.4285V42.0233C113.394 42.2859 113.264 42.4172 113.005 42.4172H111.316C111.056 42.4172 110.926 42.2859 110.926 42.0233ZM118.517 38.0841V28.3676C118.517 25.3476 120.076 23.772 123.195 23.772H129.172C132.29 23.772 133.849 25.3476 133.849 28.3676V29.4181C133.849 29.6807 133.719 29.812 133.459 29.812H131.77C131.51 29.812 131.38 29.6807 131.38 29.4181V28.3676C131.38 26.9233 130.601 26.1355 129.172 26.1355H123.195C121.766 26.1355 120.986 26.9233 120.986 28.3676V38.0841C120.986 39.5285 121.766 40.3163 123.195 40.3163H129.172C130.601 40.3163 131.38 39.5285 131.38 38.0841V37.0337C131.38 36.7711 131.51 36.6398 131.77 36.6398H133.459C133.719 36.6398 133.849 36.7711 133.849 37.0337V38.0841C133.849 41.1041 132.29 42.6798 129.172 42.6798H123.195C120.076 42.6798 118.517 41.1041 118.517 38.0841Z" fill="black"/>
<path fill-rule="evenodd" clip-rule="evenodd" d="M35.8605 43.3953L32.3721 38.7906V25.8139L21.0698 32.0929L9.62791 25.8139V38.7906L0 43.3953V9.48828L21.0698 21.3487L42.6977 9.48828V43.3953L38.9302 38.7906V14.7906L21.0698 24.9767L3.34884 14.7906V38.0929L6.55814 36.4185V20.7906L21.0698 28.7441L35.8605 19.9534V43.3953Z" fill="black"/>
<path fill-rule="evenodd" clip-rule="evenodd" d="M4.60465 9.48837L4.04651 0L11.4419 5.72093L21.1395 0L30.4186 5.72093L38.2326 0L36.9767 9.48837L21.2093 18.9767L4.60465 9.48837ZM6.97674 8.37209L6.69767 4.88372L11.4419 8.51163L21.0698 2.65116L30.5581 8.51163L35.4419 4.88372L35.0233 7.95349L21.0698 16.4651L6.97674 8.37209Z" fill="url(#paint0_linear)"/>
<defs>
<linearGradient id="paint0_linear" x1="-8.83905" y1="9.48837" x2="10.0107" y2="35.087" gradientUnits="userSpaceOnUse">
<stop stop-color="#D28F21"/>
<stop offset="1" stop-color="#E2B941"/>
</linearGradient>
</defs>
</svg>
