<svg width="99" height="87" viewBox="0 0 99 87" fill="none" xmlns="http://www.w3.org/2000/svg">
<path fill-rule="evenodd" clip-rule="evenodd" d="M96.2307 72.684C88.4009 75.083 81.2764 78.6497 73.817 81.93C71.8758 82.7835 70.802 79.9996 72.2422 78.8193C74.6778 76.8215 77.3474 75.0881 80.1444 73.5572C71.9151 73.2234 63.3403 71.2618 55.9512 68.9947C46.0359 65.953 36.4714 61.2627 28.0538 55.1971C14.0888 45.1338 -0.581453 26.3043 0.702429 8.03719C0.774878 6.9946 2.3138 7.0544 2.62972 7.90242C5.82657 16.4903 8.11287 24.6147 13.5277 32.2215C18.8302 39.6707 25.7449 46.3055 33.4275 51.2787C41.5459 56.5342 50.5947 59.813 59.9928 61.9376C67.8609 63.7151 75.7101 63.9882 83.5955 64.736C79.542 60.7851 76.1593 56.1057 74.4232 51.1607C73.403 48.2558 77.4091 46.2816 79.1826 48.7509C81.8792 52.5069 83.9851 56.4456 87.205 59.8433C90.1911 62.9947 93.5814 65.5043 97.1266 67.978C98.8401 69.1734 98.0924 72.1127 96.2307 72.684Z" fill="#E02020"/>
</svg>
